2021-11-29 09:07:21,332 INFO werkzeug MainThread :  * Running on http://127.0.0.1:5000/ (Press CTRL+C to quit)
2021-11-29 09:08:20,720 INFO root Thread-6 : request from 127.0.0.1 (/v1/updateRecord)
2021-11-29 09:08:20,722 INFO werkzeug Thread-6 : 127.0.0.1 - - [29/Nov/2021 09:08:20] "[35m[1mPOST /v1/updateRecord?username=testUser2&voteScissors=10&voteRock=20&votePaper=30&voteSpock=40&voteLizard=50 HTTP/1.1[0m" 500 -
2021-11-29 09:08:47,701 INFO werkzeug Thread-7 : 127.0.0.1 - - [29/Nov/2021 09:08:47] "GET /v1/getLog HTTP/1.1" 200 -
2021-11-29 09:08:47,738 INFO werkzeug Thread-8 : 127.0.0.1 - - [29/Nov/2021 09:08:47] "[33mGET /favicon.ico HTTP/1.1[0m" 404 -
2021-11-29 09:09:00,773 INFO root Thread-9 : request from 127.0.0.1 (/v1/getGraph)
2021-11-29 09:09:00,774 INFO root Thread-9 : fetching totals from database
2021-11-29 09:09:00,774 INFO werkzeug Thread-9 : 127.0.0.1 - - [29/Nov/2021 09:09:00] "[33mGET /v1/getGraph HTTP/1.1[0m" 404 -
2021-11-29 09:09:11,240 INFO root Thread-10 : request from 127.0.0.1 (/v1/getGraph)
2021-11-29 09:09:11,241 INFO root Thread-10 : fetching totals from database
2021-11-29 09:09:11,241 INFO werkzeug Thread-10 : 127.0.0.1 - - [29/Nov/2021 09:09:11] "[33mGET /v1/getGraph HTTP/1.1[0m" 404 -
2021-11-29 09:09:22,144 INFO root Thread-11 : request from 127.0.0.1 (/v1/getGraph)
2021-11-29 09:09:22,145 INFO root Thread-11 : fetching totals from database
2021-11-29 09:09:22,146 INFO werkzeug Thread-11 : 127.0.0.1 - - [29/Nov/2021 09:09:22] "[33mGET /v1/getGraph HTTP/1.1[0m" 404 -
2021-11-29 09:09:47,905 INFO werkzeug MainThread :  * Running on http://127.0.0.1:5000/ (Press CTRL+C to quit)
2021-11-29 09:10:05,358 INFO werkzeug MainThread :  * Running on http://127.0.0.1:5000/ (Press CTRL+C to quit)
2021-11-29 09:10:08,661 INFO root Thread-6 : request from 127.0.0.1 (/v1/updateRecord)
2021-11-29 09:10:08,663 INFO werkzeug Thread-6 : 127.0.0.1 - - [29/Nov/2021 09:10:08] "[35m[1mPOST /v1/updateRecord?username=testUser2&voteScissors=10&voteRock=20&votePaper=30&voteSpock=40&voteLizard=50 HTTP/1.1[0m" 500 -
2021-11-29 09:10:23,699 INFO werkzeug MainThread :  * Running on http://127.0.0.1:5000/ (Press CTRL+C to quit)
2021-11-29 09:10:27,864 INFO root Thread-6 : request from 127.0.0.1 (/v1/updateRecord)
2021-11-29 09:10:27,866 INFO werkzeug Thread-6 : 127.0.0.1 - - [29/Nov/2021 09:10:27] "[35m[1mPOST /v1/updateRecord?username=testUser2&voteScissors=10&voteRock=20&votePaper=30&voteSpock=40&voteLizard=50 HTTP/1.1[0m" 500 -
2021-11-29 09:11:56,711 INFO werkzeug MainThread :  * Running on http://127.0.0.1:5000/ (Press CTRL+C to quit)
2021-11-29 09:12:16,733 INFO werkzeug MainThread :  * Running on http://127.0.0.1:5000/ (Press CTRL+C to quit)
2021-11-29 09:12:18,492 INFO root Thread-7 : request from 127.0.0.1 (/v1/updateRecord)
2021-11-29 09:12:18,492 ERROR app Thread-7 : Exception on /v1/updateRecord [POST]
Traceback (most recent call last):
  File "C:\Users\Sebastian-DESKTOP\PycharmProjects\rock-paper-scissors-data-server\venv\lib\site-packages\flask\app.py", line 2073, in wsgi_app
    response = self.full_dispatch_request()
  File "C:\Users\Sebastian-DESKTOP\PycharmProjects\rock-paper-scissors-data-server\venv\lib\site-packages\flask\app.py", line 1518, in full_dispatch_request
    rv = self.handle_user_exception(e)
  File "C:\Users\Sebastian-DESKTOP\PycharmProjects\rock-paper-scissors-data-server\venv\lib\site-packages\flask_cors\extension.py", line 165, in wrapped_function
    return cors_after_request(app.make_response(f(*args, **kwargs)))
  File "C:\Users\Sebastian-DESKTOP\PycharmProjects\rock-paper-scissors-data-server\venv\lib\site-packages\flask\app.py", line 1516, in full_dispatch_request
    rv = self.dispatch_request()
  File "C:\Users\Sebastian-DESKTOP\PycharmProjects\rock-paper-scissors-data-server\venv\lib\site-packages\flask\app.py", line 1502, in dispatch_request
    return self.ensure_sync(self.view_functions[rule.endpoint])(**req.view_args)
  File "C:\Users\Sebastian-DESKTOP\Downloads\git\rock-paper-scissors-data-server\app.py", line 62, in updateRecord
    if argScissors < 0:
OSError: [Errno 22] Invalid argument
2021-11-29 09:12:18,505 INFO werkzeug Thread-7 : 127.0.0.1 - - [29/Nov/2021 09:12:18] "[35m[1mPOST /v1/updateRecord?username=testUser2&voteScissors=10&voteRock=20&votePaper=30&voteSpock=40&voteLizard=50 HTTP/1.1[0m" 500 -
2021-11-29 09:12:21,752 INFO root Thread-8 : request from 127.0.0.1 (/v1/updateRecord)
2021-11-29 09:12:21,753 ERROR app Thread-8 : Exception on /v1/updateRecord [POST]
Traceback (most recent call last):
  File "C:\Users\Sebastian-DESKTOP\PycharmProjects\rock-paper-scissors-data-server\venv\lib\site-packages\flask\app.py", line 2073, in wsgi_app
    response = self.full_dispatch_request()
  File "C:\Users\Sebastian-DESKTOP\PycharmProjects\rock-paper-scissors-data-server\venv\lib\site-packages\flask\app.py", line 1518, in full_dispatch_request
    rv = self.handle_user_exception(e)
  File "C:\Users\Sebastian-DESKTOP\PycharmProjects\rock-paper-scissors-data-server\venv\lib\site-packages\flask_cors\extension.py", line 165, in wrapped_function
    return cors_after_request(app.make_response(f(*args, **kwargs)))
  File "C:\Users\Sebastian-DESKTOP\PycharmProjects\rock-paper-scissors-data-server\venv\lib\site-packages\flask\app.py", line 1516, in full_dispatch_request
    rv = self.dispatch_request()
  File "C:\Users\Sebastian-DESKTOP\PycharmProjects\rock-paper-scissors-data-server\venv\lib\site-packages\flask\app.py", line 1502, in dispatch_request
    return self.ensure_sync(self.view_functions[rule.endpoint])(**req.view_args)
  File "C:\Users\Sebastian-DESKTOP\Downloads\git\rock-paper-scissors-data-server\app.py", line 62, in updateRecord
    if argScissors < 0:
OSError: [Errno 22] Invalid argument
2021-11-29 09:12:21,753 INFO werkzeug Thread-8 : 127.0.0.1 - - [29/Nov/2021 09:12:21] "[35m[1mPOST /v1/updateRecord?username=testUser2&voteScissors=10&voteRock=20&votePaper=30&voteSpock=40&voteLizard=50 HTTP/1.1[0m" 500 -
2021-11-29 09:12:40,847 INFO werkzeug MainThread :  * Running on http://127.0.0.1:5000/ (Press CTRL+C to quit)
2021-11-29 09:12:45,044 INFO root Thread-9 : request from 127.0.0.1 (/v1/updateRecord)
2021-11-29 09:12:45,044 ERROR app Thread-9 : Exception on /v1/updateRecord [POST]
Traceback (most recent call last):
  File "C:\Users\Sebastian-DESKTOP\PycharmProjects\rock-paper-scissors-data-server\venv\lib\site-packages\flask\app.py", line 2073, in wsgi_app
    response = self.full_dispatch_request()
  File "C:\Users\Sebastian-DESKTOP\PycharmProjects\rock-paper-scissors-data-server\venv\lib\site-packages\flask\app.py", line 1518, in full_dispatch_request
    rv = self.handle_user_exception(e)
  File "C:\Users\Sebastian-DESKTOP\PycharmProjects\rock-paper-scissors-data-server\venv\lib\site-packages\flask_cors\extension.py", line 165, in wrapped_function
    return cors_after_request(app.make_response(f(*args, **kwargs)))
  File "C:\Users\Sebastian-DESKTOP\PycharmProjects\rock-paper-scissors-data-server\venv\lib\site-packages\flask\app.py", line 1516, in full_dispatch_request
    rv = self.dispatch_request()
  File "C:\Users\Sebastian-DESKTOP\PycharmProjects\rock-paper-scissors-data-server\venv\lib\site-packages\flask\app.py", line 1502, in dispatch_request
    return self.ensure_sync(self.view_functions[rule.endpoint])(**req.view_args)
  File "C:\Users\Sebastian-DESKTOP\Downloads\git\rock-paper-scissors-data-server\app.py", line 62, in updateRecord
OSError: [Errno 22] Invalid argument
2021-11-29 09:12:45,046 INFO werkzeug Thread-9 : 127.0.0.1 - - [29/Nov/2021 09:12:45] "[35m[1mPOST /v1/updateRecord?username=testUser2&voteScissors=10&voteRock=20&votePaper=30&voteSpock=40&voteLizard=50 HTTP/1.1[0m" 500 -
2021-11-29 09:13:00,352 INFO werkzeug MainThread :  * Running on http://127.0.0.1:5000/ (Press CTRL+C to quit)
2021-11-29 09:13:01,965 INFO root Thread-10 : request from 127.0.0.1 (/v1/updateRecord)
2021-11-29 09:13:01,965 ERROR app Thread-10 : Exception on /v1/updateRecord [POST]
Traceback (most recent call last):
  File "C:\Users\Sebastian-DESKTOP\PycharmProjects\rock-paper-scissors-data-server\venv\lib\site-packages\flask\app.py", line 2073, in wsgi_app
    response = self.full_dispatch_request()
  File "C:\Users\Sebastian-DESKTOP\PycharmProjects\rock-paper-scissors-data-server\venv\lib\site-packages\flask\app.py", line 1518, in full_dispatch_request
    rv = self.handle_user_exception(e)
  File "C:\Users\Sebastian-DESKTOP\PycharmProjects\rock-paper-scissors-data-server\venv\lib\site-packages\flask_cors\extension.py", line 165, in wrapped_function
    return cors_after_request(app.make_response(f(*args, **kwargs)))
  File "C:\Users\Sebastian-DESKTOP\PycharmProjects\rock-paper-scissors-data-server\venv\lib\site-packages\flask\app.py", line 1516, in full_dispatch_request
    rv = self.dispatch_request()
  File "C:\Users\Sebastian-DESKTOP\PycharmProjects\rock-paper-scissors-data-server\venv\lib\site-packages\flask\app.py", line 1502, in dispatch_request
    return self.ensure_sync(self.view_functions[rule.endpoint])(**req.view_args)
  File "C:\Users\Sebastian-DESKTOP\Downloads\git\rock-paper-scissors-data-server\app.py", line 62, in updateRecord
    if argScissors < 0:
OSError: [Errno 22] Invalid argument
2021-11-29 09:13:01,966 INFO werkzeug Thread-10 : 127.0.0.1 - - [29/Nov/2021 09:13:01] "[35m[1mPOST /v1/updateRecord?username=testUser2&voteScissors=10&voteRock=20&votePaper=30&voteSpock=40&voteLizard=50 HTTP/1.1[0m" 500 -
2021-11-29 09:13:04,707 INFO root Thread-11 : request from 127.0.0.1 (/v1/updateRecord)
2021-11-29 09:13:04,708 ERROR app Thread-11 : Exception on /v1/updateRecord [POST]
Traceback (most recent call last):
  File "C:\Users\Sebastian-DESKTOP\PycharmProjects\rock-paper-scissors-data-server\venv\lib\site-packages\flask\app.py", line 2073, in wsgi_app
    response = self.full_dispatch_request()
  File "C:\Users\Sebastian-DESKTOP\PycharmProjects\rock-paper-scissors-data-server\venv\lib\site-packages\flask\app.py", line 1518, in full_dispatch_request
    rv = self.handle_user_exception(e)
  File "C:\Users\Sebastian-DESKTOP\PycharmProjects\rock-paper-scissors-data-server\venv\lib\site-packages\flask_cors\extension.py", line 165, in wrapped_function
    return cors_after_request(app.make_response(f(*args, **kwargs)))
  File "C:\Users\Sebastian-DESKTOP\PycharmProjects\rock-paper-scissors-data-server\venv\lib\site-packages\flask\app.py", line 1516, in full_dispatch_request
    rv = self.dispatch_request()
  File "C:\Users\Sebastian-DESKTOP\PycharmProjects\rock-paper-scissors-data-server\venv\lib\site-packages\flask\app.py", line 1502, in dispatch_request
    return self.ensure_sync(self.view_functions[rule.endpoint])(**req.view_args)
  File "C:\Users\Sebastian-DESKTOP\Downloads\git\rock-paper-scissors-data-server\app.py", line 62, in updateRecord
    if argScissors < 0:
OSError: [Errno 22] Invalid argument
2021-11-29 09:13:04,708 INFO werkzeug Thread-11 : 127.0.0.1 - - [29/Nov/2021 09:13:04] "[35m[1mPOST /v1/updateRecord?username=testUser2&voteScissors=10&voteRock=20&votePaper=30&voteSpock=40&voteLizard=50 HTTP/1.1[0m" 500 -
2021-11-29 09:13:05,321 INFO root Thread-12 : request from 127.0.0.1 (/v1/updateRecord)
2021-11-29 09:13:05,322 ERROR app Thread-12 : Exception on /v1/updateRecord [POST]
Traceback (most recent call last):
  File "C:\Users\Sebastian-DESKTOP\PycharmProjects\rock-paper-scissors-data-server\venv\lib\site-packages\flask\app.py", line 2073, in wsgi_app
    response = self.full_dispatch_request()
  File "C:\Users\Sebastian-DESKTOP\PycharmProjects\rock-paper-scissors-data-server\venv\lib\site-packages\flask\app.py", line 1518, in full_dispatch_request
    rv = self.handle_user_exception(e)
  File "C:\Users\Sebastian-DESKTOP\PycharmProjects\rock-paper-scissors-data-server\venv\lib\site-packages\flask_cors\extension.py", line 165, in wrapped_function
    return cors_after_request(app.make_response(f(*args, **kwargs)))
  File "C:\Users\Sebastian-DESKTOP\PycharmProjects\rock-paper-scissors-data-server\venv\lib\site-packages\flask\app.py", line 1516, in full_dispatch_request
    rv = self.dispatch_request()
  File "C:\Users\Sebastian-DESKTOP\PycharmProjects\rock-paper-scissors-data-server\venv\lib\site-packages\flask\app.py", line 1502, in dispatch_request
    return self.ensure_sync(self.view_functions[rule.endpoint])(**req.view_args)
  File "C:\Users\Sebastian-DESKTOP\Downloads\git\rock-paper-scissors-data-server\app.py", line 62, in updateRecord
    if argScissors < 0:
OSError: [Errno 22] Invalid argument
2021-11-29 09:13:05,323 INFO werkzeug Thread-12 : 127.0.0.1 - - [29/Nov/2021 09:13:05] "[35m[1mPOST /v1/updateRecord?username=testUser2&voteScissors=10&voteRock=20&votePaper=30&voteSpock=40&voteLizard=50 HTTP/1.1[0m" 500 -
2021-11-29 09:13:20,298 INFO root Thread-13 : request from 127.0.0.1 (/v1/updateRecord)
2021-11-29 09:13:20,299 ERROR app Thread-13 : Exception on /v1/updateRecord [POST]
Traceback (most recent call last):
  File "C:\Users\Sebastian-DESKTOP\PycharmProjects\rock-paper-scissors-data-server\venv\lib\site-packages\flask\app.py", line 2073, in wsgi_app
    response = self.full_dispatch_request()
  File "C:\Users\Sebastian-DESKTOP\PycharmProjects\rock-paper-scissors-data-server\venv\lib\site-packages\flask\app.py", line 1518, in full_dispatch_request
    rv = self.handle_user_exception(e)
  File "C:\Users\Sebastian-DESKTOP\PycharmProjects\rock-paper-scissors-data-server\venv\lib\site-packages\flask_cors\extension.py", line 165, in wrapped_function
    return cors_after_request(app.make_response(f(*args, **kwargs)))
  File "C:\Users\Sebastian-DESKTOP\PycharmProjects\rock-paper-scissors-data-server\venv\lib\site-packages\flask\app.py", line 1516, in full_dispatch_request
    rv = self.dispatch_request()
  File "C:\Users\Sebastian-DESKTOP\PycharmProjects\rock-paper-scissors-data-server\venv\lib\site-packages\flask\app.py", line 1502, in dispatch_request
    return self.ensure_sync(self.view_functions[rule.endpoint])(**req.view_args)
  File "C:\Users\Sebastian-DESKTOP\Downloads\git\rock-paper-scissors-data-server\app.py", line 62, in updateRecord
    if argScissors < 0:
OSError: [Errno 22] Invalid argument
2021-11-29 09:13:20,300 INFO werkzeug Thread-13 : 127.0.0.1 - - [29/Nov/2021 09:13:20] "[35m[1mPOST /v1/updateRecord?username=testUser2&voteScissors=10&voteRock=20&votePaper=30&voteSpock=40&voteLizard=50 HTTP/1.1[0m" 500 -
2021-11-29 09:13:32,310 INFO root Thread-14 : request from 127.0.0.1 (/v1/updateRecord)
2021-11-29 09:13:32,311 ERROR app Thread-14 : Exception on /v1/updateRecord [POST]
Traceback (most recent call last):
  File "C:\Users\Sebastian-DESKTOP\PycharmProjects\rock-paper-scissors-data-server\venv\lib\site-packages\flask\app.py", line 2073, in wsgi_app
    response = self.full_dispatch_request()
  File "C:\Users\Sebastian-DESKTOP\PycharmProjects\rock-paper-scissors-data-server\venv\lib\site-packages\flask\app.py", line 1518, in full_dispatch_request
    rv = self.handle_user_exception(e)
  File "C:\Users\Sebastian-DESKTOP\PycharmProjects\rock-paper-scissors-data-server\venv\lib\site-packages\flask_cors\extension.py", line 165, in wrapped_function
    return cors_after_request(app.make_response(f(*args, **kwargs)))
  File "C:\Users\Sebastian-DESKTOP\PycharmProjects\rock-paper-scissors-data-server\venv\lib\site-packages\flask\app.py", line 1516, in full_dispatch_request
    rv = self.dispatch_request()
  File "C:\Users\Sebastian-DESKTOP\PycharmProjects\rock-paper-scissors-data-server\venv\lib\site-packages\flask\app.py", line 1502, in dispatch_request
    return self.ensure_sync(self.view_functions[rule.endpoint])(**req.view_args)
  File "C:\Users\Sebastian-DESKTOP\Downloads\git\rock-paper-scissors-data-server\app.py", line 62, in updateRecord
    if argScissors < 0:
OSError: [Errno 22] Invalid argument
2021-11-29 09:13:32,312 INFO werkzeug Thread-14 : 127.0.0.1 - - [29/Nov/2021 09:13:32] "[35m[1mPOST /v1/updateRecord?username=testUser2&voteScissors=10&voteRock=20&votePaper=30&voteSpock=40&voteLizard=50 HTTP/1.1[0m" 500 -
2021-11-29 09:13:33,665 INFO root Thread-15 : request from 127.0.0.1 (/v1/updateRecord)
2021-11-29 09:13:33,666 ERROR app Thread-15 : Exception on /v1/updateRecord [POST]
Traceback (most recent call last):
  File "C:\Users\Sebastian-DESKTOP\PycharmProjects\rock-paper-scissors-data-server\venv\lib\site-packages\flask\app.py", line 2073, in wsgi_app
    response = self.full_dispatch_request()
  File "C:\Users\Sebastian-DESKTOP\PycharmProjects\rock-paper-scissors-data-server\venv\lib\site-packages\flask\app.py", line 1518, in full_dispatch_request
    rv = self.handle_user_exception(e)
  File "C:\Users\Sebastian-DESKTOP\PycharmProjects\rock-paper-scissors-data-server\venv\lib\site-packages\flask_cors\extension.py", line 165, in wrapped_function
    return cors_after_request(app.make_response(f(*args, **kwargs)))
  File "C:\Users\Sebastian-DESKTOP\PycharmProjects\rock-paper-scissors-data-server\venv\lib\site-packages\flask\app.py", line 1516, in full_dispatch_request
    rv = self.dispatch_request()
  File "C:\Users\Sebastian-DESKTOP\PycharmProjects\rock-paper-scissors-data-server\venv\lib\site-packages\flask\app.py", line 1502, in dispatch_request
    return self.ensure_sync(self.view_functions[rule.endpoint])(**req.view_args)
  File "C:\Users\Sebastian-DESKTOP\Downloads\git\rock-paper-scissors-data-server\app.py", line 62, in updateRecord
    if argScissors < 0:
OSError: [Errno 22] Invalid argument
2021-11-29 09:13:33,667 INFO werkzeug Thread-15 : 127.0.0.1 - - [29/Nov/2021 09:13:33] "[35m[1mPOST /v1/updateRecord?username=testUser2&voteScissors=10&voteRock=20&votePaper=30&voteSpock=40&voteLizard=50 HTTP/1.1[0m" 500 -
2021-11-29 09:13:34,226 INFO root Thread-16 : request from 127.0.0.1 (/v1/updateRecord)
2021-11-29 09:13:34,226 ERROR app Thread-16 : Exception on /v1/updateRecord [POST]
Traceback (most recent call last):
  File "C:\Users\Sebastian-DESKTOP\PycharmProjects\rock-paper-scissors-data-server\venv\lib\site-packages\flask\app.py", line 2073, in wsgi_app
    response = self.full_dispatch_request()
  File "C:\Users\Sebastian-DESKTOP\PycharmProjects\rock-paper-scissors-data-server\venv\lib\site-packages\flask\app.py", line 1518, in full_dispatch_request
    rv = self.handle_user_exception(e)
  File "C:\Users\Sebastian-DESKTOP\PycharmProjects\rock-paper-scissors-data-server\venv\lib\site-packages\flask_cors\extension.py", line 165, in wrapped_function
    return cors_after_request(app.make_response(f(*args, **kwargs)))
  File "C:\Users\Sebastian-DESKTOP\PycharmProjects\rock-paper-scissors-data-server\venv\lib\site-packages\flask\app.py", line 1516, in full_dispatch_request
    rv = self.dispatch_request()
  File "C:\Users\Sebastian-DESKTOP\PycharmProjects\rock-paper-scissors-data-server\venv\lib\site-packages\flask\app.py", line 1502, in dispatch_request
    return self.ensure_sync(self.view_functions[rule.endpoint])(**req.view_args)
  File "C:\Users\Sebastian-DESKTOP\Downloads\git\rock-paper-scissors-data-server\app.py", line 62, in updateRecord
    if argScissors < 0:
OSError: [Errno 22] Invalid argument
2021-11-29 09:13:34,227 INFO werkzeug Thread-16 : 127.0.0.1 - - [29/Nov/2021 09:13:34] "[35m[1mPOST /v1/updateRecord?username=testUser2&voteScissors=10&voteRock=20&votePaper=30&voteSpock=40&voteLizard=50 HTTP/1.1[0m" 500 -
2021-11-29 09:13:52,342 INFO werkzeug MainThread :  * Running on http://127.0.0.1:5000/ (Press CTRL+C to quit)
2021-11-29 09:13:54,940 INFO root Thread-17 : request from 127.0.0.1 (/v1/updateRecord)
2021-11-29 09:13:54,940 ERROR app Thread-17 : Exception on /v1/updateRecord [POST]
Traceback (most recent call last):
  File "C:\Users\Sebastian-DESKTOP\PycharmProjects\rock-paper-scissors-data-server\venv\lib\site-packages\flask\app.py", line 2073, in wsgi_app
    response = self.full_dispatch_request()
  File "C:\Users\Sebastian-DESKTOP\PycharmProjects\rock-paper-scissors-data-server\venv\lib\site-packages\flask\app.py", line 1518, in full_dispatch_request
    rv = self.handle_user_exception(e)
  File "C:\Users\Sebastian-DESKTOP\PycharmProjects\rock-paper-scissors-data-server\venv\lib\site-packages\flask_cors\extension.py", line 165, in wrapped_function
    return cors_after_request(app.make_response(f(*args, **kwargs)))
  File "C:\Users\Sebastian-DESKTOP\PycharmProjects\rock-paper-scissors-data-server\venv\lib\site-packages\flask\app.py", line 1516, in full_dispatch_request
    rv = self.dispatch_request()
  File "C:\Users\Sebastian-DESKTOP\PycharmProjects\rock-paper-scissors-data-server\venv\lib\site-packages\flask\app.py", line 1502, in dispatch_request
    return self.ensure_sync(self.view_functions[rule.endpoint])(**req.view_args)
  File "C:\Users\Sebastian-DESKTOP\Downloads\git\rock-paper-scissors-data-server\app.py", line 62, in updateRecord
    if argScissors < 0:
OSError: [Errno 22] Invalid argument
2021-11-29 09:13:54,941 INFO werkzeug Thread-17 : 127.0.0.1 - - [29/Nov/2021 09:13:54] "[35m[1mPOST /v1/updateRecord?username=testUser2&voteScissors=10&voteRock=20&votePaper=30&voteSpock=40&voteLizard=50 HTTP/1.1[0m" 500 -
2021-11-29 09:14:12,975 INFO werkzeug MainThread :  * Running on http://127.0.0.1:5000/ (Press CTRL+C to quit)
2021-11-29 09:14:15,880 INFO root Thread-6 : request from 127.0.0.1 (/v1/updateRecord)
2021-11-29 09:14:15,883 INFO werkzeug Thread-6 : 127.0.0.1 - - [29/Nov/2021 09:14:15] "[35m[1mPOST /v1/updateRecord?username=testUser2&voteScissors=10&voteRock=20&votePaper=30&voteSpock=40&voteLizard=50 HTTP/1.1[0m" 500 -
2021-11-29 09:14:32,367 INFO werkzeug MainThread :  * Running on http://127.0.0.1:5000/ (Press CTRL+C to quit)
2021-11-29 09:14:34,839 INFO root Thread-6 : request from 127.0.0.1 (/v1/updateRecord)
2021-11-29 09:14:34,841 INFO werkzeug Thread-6 : 127.0.0.1 - - [29/Nov/2021 09:14:34] "[35m[1mPOST /v1/updateRecord?username=testUser2&voteScissors=10&voteRock=20&votePaper=30&voteSpock=40&voteLizard=50 HTTP/1.1[0m" 500 -
2021-11-29 09:14:47,739 INFO werkzeug MainThread :  * Running on http://127.0.0.1:5000/ (Press CTRL+C to quit)
2021-11-29 09:14:49,832 INFO root Thread-6 : request from 127.0.0.1 (/v1/updateRecord)
2021-11-29 09:14:49,833 INFO werkzeug Thread-6 : 127.0.0.1 - - [29/Nov/2021 09:14:49] "[35m[1mPOST /v1/updateRecord?username=testUser2&voteScissors=10&voteRock=20&votePaper=30&voteSpock=40&voteLizard=50 HTTP/1.1[0m" 500 -
2021-11-29 09:15:15,868 INFO werkzeug MainThread :  * Running on http://127.0.0.1:5000/ (Press CTRL+C to quit)
2021-11-29 09:15:18,770 INFO root Thread-6 : request from 127.0.0.1 (/v1/updateRecord)
2021-11-29 09:15:49,024 INFO werkzeug Thread-6 : 127.0.0.1 - - [29/Nov/2021 09:15:49] "[35m[1mPOST /v1/updateRecord?username=testUser2&voteScissors=10&voteRock=20&votePaper=30&voteSpock=40&voteLizard=50 HTTP/1.1[0m" 500 -
2021-11-29 09:15:55,956 INFO werkzeug MainThread :  * Running on http://127.0.0.1:5000/ (Press CTRL+C to quit)
2021-11-29 09:15:58,317 INFO root Thread-6 : request from 127.0.0.1 (/v1/updateRecord)
2021-11-29 09:15:58,320 INFO werkzeug Thread-6 : 127.0.0.1 - - [29/Nov/2021 09:15:58] "[35m[1mPOST /v1/updateRecord?username=testUser2&voteScissors=10&voteRock=20&votePaper=30&voteSpock=40&voteLizard=50 HTTP/1.1[0m" 500 -
2021-11-29 09:16:00,891 INFO root Thread-7 : request from 127.0.0.1 (/v1/updateRecord)
2021-11-29 09:16:00,892 INFO werkzeug Thread-7 : 127.0.0.1 - - [29/Nov/2021 09:16:00] "[35m[1mPOST /v1/updateRecord?username=testUser2&voteScissors=10&voteRock=20&votePaper=30&voteSpock=40&voteLizard=50 HTTP/1.1[0m" 500 -
2021-11-29 09:16:08,229 INFO root Thread-8 : request from 127.0.0.1 (/v1/updateRecord)
2021-11-29 09:16:08,230 INFO werkzeug Thread-8 : 127.0.0.1 - - [29/Nov/2021 09:16:08] "[35m[1mPOST /v1/updateRecord?username=testUser2&voteScissors=10&voteRock=20&votePaper=30&voteSpock=40&voteLizard=50 HTTP/1.1[0m" 500 -
2021-11-29 09:16:12,994 INFO werkzeug MainThread :  * Running on http://127.0.0.1:5000/ (Press CTRL+C to quit)
2021-11-29 09:16:14,776 INFO root Thread-6 : request from 127.0.0.1 (/v1/updateRecord)
2021-11-29 09:16:14,779 INFO werkzeug Thread-6 : 127.0.0.1 - - [29/Nov/2021 09:16:14] "[35m[1mPOST /v1/updateRecord?username=testUser2&voteScissors=10&voteRock=20&votePaper=30&voteSpock=40&voteLizard=50 HTTP/1.1[0m" 500 -
2021-11-29 09:16:19,241 INFO root Thread-7 : request from 127.0.0.1 (/v1/updateRecord)
2021-11-29 09:16:56,429 INFO werkzeug MainThread :  * Running on http://127.0.0.1:5000/ (Press CTRL+C to quit)
2021-11-29 09:17:05,373 INFO root Thread-6 : request from 127.0.0.1 (/v1/updateRecord)
2021-11-29 09:17:11,664 INFO werkzeug MainThread :  * Running on http://127.0.0.1:5000/ (Press CTRL+C to quit)
2021-11-29 09:17:15,254 INFO root Thread-6 : request from 127.0.0.1 (/v1/updateRecord)
2021-11-29 09:17:15,260 INFO root Thread-6 : updated db for username=testUser2
2021-11-29 09:17:15,262 INFO werkzeug Thread-6 : 127.0.0.1 - - [29/Nov/2021 09:17:15] "POST /v1/updateRecord?username=testUser2&voteScissors=10&voteRock=20&votePaper=30&voteSpock=40&voteLizard=50 HTTP/1.1" 200 -
2021-11-29 09:17:45,011 INFO werkzeug Thread-7 : 127.0.0.1 - - [29/Nov/2021 09:17:45] "GET /v1/getLog HTTP/1.1" 200 -
2021-11-29 09:17:48,957 INFO root Thread-8 : request from 127.0.0.1 (/v1/getGraph)
2021-11-29 09:17:48,961 INFO root Thread-8 : fetching totals from database
2021-11-29 09:17:49,133 INFO werkzeug Thread-8 : 127.0.0.1 - - [29/Nov/2021 09:17:49] "GET /v1/getGraph HTTP/1.1" 200 -
2021-11-29 09:19:02,515 INFO root Thread-9 : request from 127.0.0.1 (/v1/updateRecord)
2021-11-29 09:19:02,523 INFO root Thread-9 : updated db for username=testUser3
2021-11-29 09:19:02,524 INFO werkzeug Thread-9 : 127.0.0.1 - - [29/Nov/2021 09:19:02] "POST /v1/updateRecord?username=testUser3&voteScissors=10&voteRock=10&votePaper=10&voteSpock=10&voteLizard=10 HTTP/1.1" 200 -
2021-11-29 09:19:18,265 INFO root Thread-10 : request from 127.0.0.1 (/v1/getGraph)
2021-11-29 09:19:18,271 INFO root Thread-10 : fetching totals from database
2021-11-29 09:19:18,366 INFO werkzeug Thread-10 : 127.0.0.1 - - [29/Nov/2021 09:19:18] "GET /v1/getGraph HTTP/1.1" 200 -
2021-12-17 10:44:34,884 INFO root MainThread : flask is starting
2021-12-17 10:44:34,914 INFO werkzeug MainThread :  * Running on http://127.0.0.1:5000/ (Press CTRL+C to quit)
2021-12-17 10:44:43,511 INFO root Thread-1 (process_request_thread) : request from 127.0.0.1 (/)
2021-12-17 10:44:43,543 INFO werkzeug Thread-1 (process_request_thread) : 127.0.0.1 - - [17/Dec/2021 10:44:43] "GET / HTTP/1.1" 200 -
2021-12-17 10:53:51,794 INFO werkzeug Thread-2 (process_request_thread) : 127.0.0.1 - - [17/Dec/2021 10:53:51] "[31m[1mGET /v1/updateRecord?username=testName&voteScissors=1&voteRock=2&votePaper=3&voteSpock=4&voteLizard=5 HTTP/1.1[0m" 405 -
2021-12-17 10:53:59,104 INFO root Thread-3 (process_request_thread) : request from 127.0.0.1 (/v1/updateRecord)
2021-12-17 10:53:59,113 INFO root Thread-3 (process_request_thread) : updated db for username=testName
2021-12-17 10:53:59,113 INFO werkzeug Thread-3 (process_request_thread) : 127.0.0.1 - - [17/Dec/2021 10:53:59] "POST /v1/updateRecord?username=testName&voteScissors=1&voteRock=2&votePaper=3&voteSpock=4&voteLizard=5 HTTP/1.1" 200 -
2021-12-17 11:00:39,373 INFO root Thread-4 (process_request_thread) : request from 127.0.0.1 (/v1/updateRecord)
2021-12-17 11:00:39,383 INFO root Thread-4 (process_request_thread) : updated db for username=testUsername
2021-12-17 11:00:39,383 INFO werkzeug Thread-4 (process_request_thread) : 127.0.0.1 - - [17/Dec/2021 11:00:39] "POST /v1/updateRecord?username=testUsername&voteScissors=1&voteRock=2&votePaper=3&voteSpock=4&voteLizard=5 HTTP/1.1" 200 -
2021-12-17 11:01:06,077 INFO root Thread-5 (process_request_thread) : request from 127.0.0.1 (/v1/updateRecord)
2021-12-17 11:01:06,091 INFO root Thread-5 (process_request_thread) : updated db for username=testUsername
2021-12-17 11:01:06,092 INFO werkzeug Thread-5 (process_request_thread) : 127.0.0.1 - - [17/Dec/2021 11:01:06] "POST /v1/updateRecord?username=testUsername&voteScissors=1&voteRock=2&votePaper=3&voteSpock=4&voteLizard=5 HTTP/1.1" 200 -
2021-12-17 11:01:46,879 INFO root Thread-6 (process_request_thread) : request from 127.0.0.1 (/v1/updateRecord)
2021-12-17 11:01:46,887 INFO root Thread-6 (process_request_thread) : updated db for username=testUsername
2021-12-17 11:01:46,888 INFO werkzeug Thread-6 (process_request_thread) : 127.0.0.1 - - [17/Dec/2021 11:01:46] "POST /v1/updateRecord?username=testUsername&voteScissors=1&voteRock=2&votePaper=3&voteSpock=4&voteLizard=5 HTTP/1.1" 200 -
2021-12-17 11:06:14,229 INFO root Thread-7 (process_request_thread) : request from 127.0.0.1 (/v1/updateRecord)
2021-12-17 11:06:14,242 INFO root Thread-7 (process_request_thread) : updated db for username=testUsername
2021-12-17 11:06:14,243 INFO werkzeug Thread-7 (process_request_thread) : 127.0.0.1 - - [17/Dec/2021 11:06:14] "POST /v1/updateRecord?username=testUsername&voteScissors=1&voteRock=2&votePaper=3&voteSpock=4&voteLizard=5 HTTP/1.1" 200 -
2021-12-17 11:06:38,184 INFO root Thread-8 (process_request_thread) : request from 127.0.0.1 (/v1/updateRecord)
2021-12-17 11:06:38,199 INFO root Thread-8 (process_request_thread) : updated db for username=testUsername
2021-12-17 11:06:38,200 INFO werkzeug Thread-8 (process_request_thread) : 127.0.0.1 - - [17/Dec/2021 11:06:38] "POST /v1/updateRecord?username=testUsername&voteScissors=1&voteRock=2&votePaper=3&voteSpock=4&voteLizard=5 HTTP/1.1" 200 -
2021-12-17 11:09:36,689 INFO root Thread-9 (process_request_thread) : request from 127.0.0.1 (/v1/updateRecord)
2021-12-17 11:09:36,698 INFO root Thread-9 (process_request_thread) : updated db for username=testUsername
2021-12-17 11:09:36,698 INFO werkzeug Thread-9 (process_request_thread) : 127.0.0.1 - - [17/Dec/2021 11:09:36] "POST /v1/updateRecord?username=testUsername&voteScissors=1&voteRock=2&votePaper=3&voteSpock=4&voteLizard=5 HTTP/1.1" 200 -
