('C:\\Users\\Sebastian-DESKTOP\\Downloads\\git\\rock-paper-scissors-data-server\\build\\app\\app.exe',
 True,
 False,
 True,
 'c:\\users\\sebastian-desktop\\pycharmprojects\\rock-paper-scissors-data-server\\venv\\lib\\site-packages\\PyInstaller\\bootloader\\images\\icon-console.ico',
 None,
 False,
 False,
 '<?xml version="1.0" encoding="UTF-8" standalone="yes"?><assembly xmlns="urn:schemas-microsoft-com:asm.v1" manifestVersion="1.0"><assemblyIdentity type="win32" name="app" processorArchitecture="amd64" version="1.0.0.0"/><trustInfo xmlns="urn:schemas-microsoft-com:asm.v3"><security><requestedPrivileges><requestedExecutionLevel level="asInvoker" uiAccess="false"/></requestedPrivileges></security></trustInfo><dependency><dependentAssembly><assemblyIdentity type="win32" name="Microsoft.Windows.Common-Controls" language="*" processorArchitecture="*" version="6.0.0.0" publicKeyToken="6595b64144ccf1df"/><compatibility xmlns="urn:schemas-microsoft-com:compatibility.v1"/></dependentAssembly></dependency><compatibility xmlns="urn:schemas-microsoft-com:compatibility.v1"><application><supportedOS Id="{e2011457-1546-43c5-a5fe-008deee3d3f0}"/><supportedOS Id="{35138b9a-5d96-4fbd-8e2d-a2440225f93a}"/><supportedOS Id="{4a2f28e3-53b9-4441-ba9c-d69d4a4a6e38}"/><supportedOS Id="{1f676c76-80e1-4239-95bb-83d0f6d0da78}"/><supportedOS Id="{8e0f7a12-bfb3-4fe8-b9a5-48fd50a15a9a}"/></application></compatibility><application xmlns="urn:schemas-microsoft-com:asm.v3"><windowsSettings><longPathAware xmlns="http://schemas.microsoft.com/SMI/2016/WindowsSettings">true</longPathAware></windowsSettings></application></assembly>',
 True,
 True,
 None,
 None,
 None,
 'C:\\Users\\Sebastian-DESKTOP\\Downloads\\git\\rock-paper-scissors-data-server\\build\\app\\app.pkg',
 [('PYZ-00.pyz',
   'C:\\Users\\Sebastian-DESKTOP\\Downloads\\git\\rock-paper-scissors-data-server\\build\\app\\PYZ-00.pyz',
   'PYZ'),
  ('struct',
   'C:\\Users\\Sebastian-DESKTOP\\AppData\\Local\\Programs\\Python\\Python39\\lib\\struct.pyo',
   'PYMODULE'),
  ('pyimod01_os_path',
   'c:\\users\\sebastian-desktop\\pycharmprojects\\rock-paper-scissors-data-server\\venv\\lib\\site-packages\\PyInstaller\\loader\\pyimod01_os_path.pyc',
   'PYMODULE'),
  ('pyimod02_archive',
   'c:\\users\\sebastian-desktop\\pycharmprojects\\rock-paper-scissors-data-server\\venv\\lib\\site-packages\\PyInstaller\\loader\\pyimod02_archive.pyc',
   'PYMODULE'),
  ('pyimod03_importers',
   'c:\\users\\sebastian-desktop\\pycharmprojects\\rock-paper-scissors-data-server\\venv\\lib\\site-packages\\PyInstaller\\loader\\pyimod03_importers.pyc',
   'PYMODULE'),
  ('pyimod04_ctypes',
   'c:\\users\\sebastian-desktop\\pycharmprojects\\rock-paper-scissors-data-server\\venv\\lib\\site-packages\\PyInstaller\\loader\\pyimod04_ctypes.pyc',
   'PYMODULE'),
  ('pyiboot01_bootstrap',
   'c:\\users\\sebastian-desktop\\pycharmprojects\\rock-paper-scissors-data-server\\venv\\lib\\site-packages\\PyInstaller\\loader\\pyiboot01_bootstrap.py',
   'PYSOURCE'),
  ('pyi_rth_pkgutil',
   'C:\\Users\\Sebastian-DESKTOP\\PycharmProjects\\rock-paper-scissors-data-server\\venv\\Lib\\site-packages\\PyInstaller\\hooks\\rthooks\\pyi_rth_pkgutil.py',
   'PYSOURCE'),
  ('pyi_rth_multiprocessing',
   'C:\\Users\\Sebastian-DESKTOP\\PycharmProjects\\rock-paper-scissors-data-server\\venv\\Lib\\site-packages\\PyInstaller\\hooks\\rthooks\\pyi_rth_multiprocessing.py',
   'PYSOURCE'),
  ('pyi_rth_inspect',
   'C:\\Users\\Sebastian-DESKTOP\\PycharmProjects\\rock-paper-scissors-data-server\\venv\\Lib\\site-packages\\PyInstaller\\hooks\\rthooks\\pyi_rth_inspect.py',
   'PYSOURCE'),
  ('pyi_rth_pkgres',
   'C:\\Users\\Sebastian-DESKTOP\\PycharmProjects\\rock-paper-scissors-data-server\\venv\\Lib\\site-packages\\PyInstaller\\hooks\\rthooks\\pyi_rth_pkgres.py',
   'PYSOURCE'),
  ('pyi_rth__tkinter',
   'C:\\Users\\Sebastian-DESKTOP\\PycharmProjects\\rock-paper-scissors-data-server\\venv\\Lib\\site-packages\\PyInstaller\\hooks\\rthooks\\pyi_rth__tkinter.py',
   'PYSOURCE'),
  ('pyi_rth_mplconfig',
   'C:\\Users\\Sebastian-DESKTOP\\PycharmProjects\\rock-paper-scissors-data-server\\venv\\Lib\\site-packages\\PyInstaller\\hooks\\rthooks\\pyi_rth_mplconfig.py',
   'PYSOURCE'),
  ('app',
   'C:\\Users\\Sebastian-DESKTOP\\Downloads\\git\\rock-paper-scissors-data-server\\app.py',
   'PYSOURCE')],
 [],
 False,
 False,
 1638174053,
 [('run.exe',
   'c:\\users\\sebastian-desktop\\pycharmprojects\\rock-paper-scissors-data-server\\venv\\lib\\site-packages\\PyInstaller\\bootloader\\Windows-64bit\\run.exe',
   'EXECUTABLE')])
