('C:\\Users\\Sebastian-DESKTOP\\Downloads\\git\\rock-paper-scissors-data-server\\build\\app\\app.pkg',
 {'BINARY': 1,
  'DATA': 1,
  'EXECUTABLE': 1,
  'EXTENSION': 1,
  'PYMODULE': 1,
  'PYSOURCE': 1,
  'PYZ': 0,
  'SPLASH': 1},
 [('PYZ-00.pyz',
   'C:\\Users\\Sebastian-DESKTOP\\Downloads\\git\\rock-paper-scissors-data-server\\build\\app\\PYZ-00.pyz',
   'PYZ'),
  ('struct',
   'C:\\Users\\Sebastian-DESKTOP\\AppData\\Local\\Programs\\Python\\Python39\\lib\\struct.pyo',
   'PYMODULE'),
  ('pyimod01_os_path',
   'c:\\users\\sebastian-desktop\\pycharmprojects\\rock-paper-scissors-data-server\\venv\\lib\\site-packages\\PyInstaller\\loader\\pyimod01_os_path.pyc',
   'PYMODULE'),
  ('pyimod02_archive',
   'c:\\users\\sebastian-desktop\\pycharmprojects\\rock-paper-scissors-data-server\\venv\\lib\\site-packages\\PyInstaller\\loader\\pyimod02_archive.pyc',
   'PYMODULE'),
  ('pyimod03_importers',
   'c:\\users\\sebastian-desktop\\pycharmprojects\\rock-paper-scissors-data-server\\venv\\lib\\site-packages\\PyInstaller\\loader\\pyimod03_importers.pyc',
   'PYMODULE'),
  ('pyimod04_ctypes',
   'c:\\users\\sebastian-desktop\\pycharmprojects\\rock-paper-scissors-data-server\\venv\\lib\\site-packages\\PyInstaller\\loader\\pyimod04_ctypes.pyc',
   'PYMODULE'),
  ('pyiboot01_bootstrap',
   'c:\\users\\sebastian-desktop\\pycharmprojects\\rock-paper-scissors-data-server\\venv\\lib\\site-packages\\PyInstaller\\loader\\pyiboot01_bootstrap.py',
   'PYSOURCE'),
  ('pyi_rth_pkgutil',
   'C:\\Users\\Sebastian-DESKTOP\\PycharmProjects\\rock-paper-scissors-data-server\\venv\\Lib\\site-packages\\PyInstaller\\hooks\\rthooks\\pyi_rth_pkgutil.py',
   'PYSOURCE'),
  ('pyi_rth_multiprocessing',
   'C:\\Users\\Sebastian-DESKTOP\\PycharmProjects\\rock-paper-scissors-data-server\\venv\\Lib\\site-packages\\PyInstaller\\hooks\\rthooks\\pyi_rth_multiprocessing.py',
   'PYSOURCE'),
  ('pyi_rth_inspect',
   'C:\\Users\\Sebastian-DESKTOP\\PycharmProjects\\rock-paper-scissors-data-server\\venv\\Lib\\site-packages\\PyInstaller\\hooks\\rthooks\\pyi_rth_inspect.py',
   'PYSOURCE'),
  ('pyi_rth_pkgres',
   'C:\\Users\\Sebastian-DESKTOP\\PycharmProjects\\rock-paper-scissors-data-server\\venv\\Lib\\site-packages\\PyInstaller\\hooks\\rthooks\\pyi_rth_pkgres.py',
   'PYSOURCE'),
  ('pyi_rth__tkinter',
   'C:\\Users\\Sebastian-DESKTOP\\PycharmProjects\\rock-paper-scissors-data-server\\venv\\Lib\\site-packages\\PyInstaller\\hooks\\rthooks\\pyi_rth__tkinter.py',
   'PYSOURCE'),
  ('pyi_rth_mplconfig',
   'C:\\Users\\Sebastian-DESKTOP\\PycharmProjects\\rock-paper-scissors-data-server\\venv\\Lib\\site-packages\\PyInstaller\\hooks\\rthooks\\pyi_rth_mplconfig.py',
   'PYSOURCE'),
  ('app',
   'C:\\Users\\Sebastian-DESKTOP\\Downloads\\git\\rock-paper-scissors-data-server\\app.py',
   'PYSOURCE')],
 True,
 False,
 False,
 [],
 None,
 None,
 None)
